"Report Written:","Friday, February 02, 2018"
"Project Path:","C:\fai\documents\git\EVOBLISS-HARDWARE\electronic_design\head_board\head_board.prj"
"Design Path:","C:\fai\documents\git\EVOBLISS-HARDWARE\electronic_design\head_board\head_board.pcb"
"Design Title:",
"Created:","17/11/2014 16:34:17"
"Last Saved:","19/03/2015 20:58:21"
"Editing Time:","2489 min"
"Units:","thou (precision 0)"

Bill of Materials generated with DesignSpark PCB - www.DesignSpark.com/pcb
--------------------------------------------------------------------------


"Ref Name","Qty","Component","Value","Package","Manufacturer","MPN","RS Part Number","Other Part Number","Description"
"J12","1","7-215079-6","","CONN_7-0215079-6_TYCO","Tyco Electronics Amp","7-215079-6","3417675","","7-215079-6"
"J1","1","7-215079-8","","CONN_7-0215079-8_TYCO","Tyco Electronics Amp","7-215079-8","3018032","","7-215079-8"
"J14","1","282824-2","","282824-2","Tyco Electronics Amp","282824-2","7100396","","Termi-Block Header 2 way pcb r/a"
"J2","1","405070010","","USER","","","","",""
"J3","1","405070010","","USER","","","","",""
"J4","1","405070010","","USER","","","","",""
"J5","1","405070010","","USER","","","","",""
"J6","1","405070010","","USER","","","","",""
"J7","1","405070010","","USER","","","","",""
"J8","1","405070010","","USER","","","","",""
"J9","1","405070010","","USER","","","","",""
"J10","1","405070010","","USER","","","","",""
"J11","1","405070010","","USER","","","","",""
"C1","1","Capacitor","0.1uF","0805","","","","","Capacitor"
"C2","1","Capacitor","0.1uF","0805","","","","","Capacitor"
"J13","1","CONN_SIL_2","","DSC","","","","","2 way Pin Header"
"R1","1","generic_resistor","","DSC","","","","",""
"R2","1","generic_resistor","","DSC","","","","",""
"R3","1","generic_resistor","","DSC","","","","",""
"R4","1","generic_resistor","","DSC","","","","",""
"U1","1","MCP23017-E/SO","","SOIC28-W_MC-L","Microchip Technology","MCP23017-E/SO","0403816","","MCP23017-E/SO"
"U2","1","MCP23017-E/SO","","SOIC28-W_MC-L","Microchip Technology","MCP23017-E/SO","0403816","","MCP23017-E/SO"
