G04 EasyPC Gerber Version 20.0.2 Build 4112 *
G04 #@! TF.Part,Single*
G04 #@! TF.FileFunction,Copper,L2,Bot *
%FSLAX35Y35*%
%MOIN*%
%ADD78C,0.00100*%
%ADD10C,0.00500*%
%ADD119C,0.00800*%
%ADD29C,0.01500*%
%ADD132C,0.02500*%
%ADD118C,0.03200*%
%ADD28C,0.04800*%
%ADD91C,0.05000*%
X0Y0D02*
D02*
D10*
X47251Y19130D02*
G75*
G02X46694Y19495I599J1520D01*
G01*
X40695Y25494*
G75*
G02X40216Y26650I1155J1156*
G01*
Y28373*
X11895Y56694*
G75*
G02X11416Y57850I1155J1156*
G01*
Y106650*
G75*
G02X11895Y107806I1634*
G01*
X20320Y116231*
G75*
G02X10611Y117948I-4135J4929*
G01*
Y37467*
X28949Y19130*
X47251*
X25500Y26672D02*
G75*
G02X38367I6434D01*
G01*
G75*
G02X25500I-6434*
G01*
X40216D02*
G36*
X38367D01*
G75*
G02X25500I-6434*
G01*
X21407*
X28699Y19380*
X46822*
G75*
G02X46694Y19495I1025J1266*
G01*
X40695Y25494*
G75*
G02X40216Y26650I1154J1156*
G01*
Y26650*
Y26672*
G37*
G36*
Y28373*
X11895Y56694*
G75*
G02X11416Y57850I1154J1156*
G01*
Y57850*
Y106650*
Y106650*
G75*
G02X11895Y107806I1633*
G01*
X20320Y116231*
G75*
G02X10861Y117548I-4135J4929*
G01*
Y37217*
X21407Y26672*
X25500*
G75*
G02X38367I6434*
G01*
X40216*
G37*
X57649Y19130D02*
X58705D01*
G75*
G02X61005Y16830J-2300*
G01*
Y6759*
X63201Y4563*
X126650*
X128846Y6759*
Y16830*
G75*
G02X131146Y19130I2300*
G01*
X160902*
X179240Y37467*
Y117948*
G75*
G02X167232Y121160I-5574J3213*
G01*
G75*
G02X179240Y124373I6433*
G01*
Y184408*
X10611*
Y124373*
G75*
G02X22616Y121361I5574J-3213*
G01*
Y132250*
G75*
G02X23095Y133406I1634*
G01*
X32080Y142391*
G75*
G02X33236Y142870I1156J-1155*
G01*
X43857*
G75*
G02X48029I2086J-1634*
G01*
X142622*
G75*
G02X143778Y142391J-1634*
G01*
X145405Y140763*
G75*
G02X145884Y139607I-1155J-1156*
G01*
Y135450*
G75*
G02X145405Y134294I-1634*
G01*
X144144Y133033*
G75*
G02X142989Y132554I-1156J1155*
G01*
X142176*
G75*
G02X142453Y132324I-1126J-1635*
G01*
X144700Y130077*
G75*
G02X147700Y127450I350J-2627*
G01*
G75*
G02X142528Y126637I-2650*
G01*
X140228Y128937*
X134672*
X133382Y127647*
G75*
G02X131977Y127066I-1403J1403*
G01*
X128252*
G75*
G02X126847Y127647I-2J1984*
G01*
X123428Y131066*
X92407*
G75*
G02X88278Y131866I-1757J1984*
G01*
X77072*
X71695Y126489*
G75*
G02X66400Y126650I-2645J161*
G01*
G75*
G02X68889Y129295I2650*
G01*
X74209Y134616*
X58527*
X55806Y131895*
G75*
G02X54650Y131416I-1156J1155*
G01*
X45727*
X44606Y130295*
G75*
G02X43450Y129816I-1156J1155*
G01*
X38650*
G75*
G02X37494Y130295J1634*
G01*
X36373Y131416*
X35327*
X32284Y128373*
Y114650*
G75*
G02X31805Y113494I-1634*
G01*
X28695Y110384*
X33103*
X33609Y110891*
G75*
G02X36253Y111984I2641J-2641*
G01*
X36966*
Y116250*
G75*
G02X39450Y118734I2484*
G01*
X40366*
Y121356*
G75*
G02X39400Y123750I2485J2394*
G01*
G75*
G02X46300I3450*
G01*
G75*
G02X45334Y121356I-3450*
G01*
Y116250*
G75*
G02X42850Y113766I-2484*
G01*
X41934*
Y111984*
X52340*
G75*
G02X54650Y112784I2310J-2935*
G01*
X70650*
G75*
G02Y105316J-3734*
G01*
X56960*
G75*
G02X54650Y104516I-2310J2935*
G01*
X37797*
X37291Y104009*
G75*
G02X34650Y102916I-2641J2641*
G01*
X29797*
X27184Y100303*
Y90234*
X35448*
G75*
G02X36853Y89653I2J-1984*
G01*
X38672Y87834*
X65009*
G75*
G02X71646Y86044I3240J-1185*
G01*
X74461Y88859*
G75*
G02X75866Y89440I1403J-1403*
G01*
X76430*
G75*
G02X80837Y87456I1757J-1983*
G01*
G75*
G02X76571Y85356I-2650*
G01*
X72110Y80895*
G75*
G02X70705Y80314I-1403J1403*
G01*
X44596*
G75*
G02X39317Y80645I-2629J331*
G01*
G75*
G02X41806Y83291I2650*
G01*
X42217Y83702*
G75*
G02X42404Y83866I1402J-1402*
G01*
X37852*
G75*
G02X36447Y84447I-2J1984*
G01*
X36433Y84460*
G75*
G02X34011Y82405I-2583J590*
G01*
X33653Y82047*
G75*
G02X32248Y81466I-1403J1403*
G01*
X30072*
X29634Y81028*
Y66472*
X52272Y43834*
X61848*
G75*
G02X63253Y43253I2J-1984*
G01*
X73072Y33434*
X101078*
G75*
G02X105316Y34133I2372J-1184*
G01*
Y55450*
G75*
G02X106409Y58091I3734*
G01*
X112809Y64491*
G75*
G02X118091Y59209I2641J-2641*
G01*
X112784Y53903*
Y34132*
G75*
G02X116810Y33785I1866J-1882*
G01*
G75*
G02X117406Y33405I-560J-1535*
G01*
X118527Y32284*
X139573*
X161016Y53727*
Y61850*
G75*
G02X161495Y63006I1634*
G01*
X165016Y66527*
Y91573*
X153973Y102616*
X126527*
X125084Y101173*
Y87450*
G75*
G02X124605Y86294I-1634*
G01*
X124481Y86170*
G75*
G02X124500Y85850I-2633J-319*
G01*
G75*
G02X119200I-2650*
G01*
G75*
G02X121816Y88500I2650*
G01*
Y101850*
G75*
G02X122295Y103006I1634*
G01*
X123805Y104516*
X123139*
G75*
G02X120574Y103716I-2322J2934*
G01*
X119453*
G75*
G02X119447I-3J3966*
G01*
X118093*
G75*
G02X117607I-243J3733*
G01*
X117050*
G75*
G02Y111184J3734*
G01*
X117355*
X118313Y111443*
G75*
G02X120253Y111984I1937J-3193*
G01*
X122266*
Y115450*
G75*
G02X123066Y117042I1984*
G01*
Y119828*
G75*
G02X121600Y122650I1984J2822*
G01*
G75*
G02X128500I3450*
G01*
G75*
G02X127034Y119828I-3450*
G01*
Y115450*
G75*
G02X126234Y113858I-1984*
G01*
Y111984*
X156081*
G75*
G02X158724Y110891I3J-3735*
G01*
X173924Y95691*
G75*
G02X175018Y93050I-2641J-2641*
G01*
Y71076*
G75*
G02X176763Y64806I-893J-3626*
G01*
X170383Y58428*
Y51450*
G75*
G02X169290Y48809I-3735*
G01*
X144491Y24008*
G75*
G02X141847Y22914I-2641J2641*
G01*
X117050*
G75*
G02X116942Y22916J3731*
G01*
X109158*
G75*
G02X109050Y22914I-108J3729*
G01*
X70653*
G75*
G02X68009Y24008I-3J3734*
G01*
X58703Y33316*
X58132*
G75*
G02X58900Y31450I-1882J-1866*
G01*
G75*
G02X54164Y29816I-2650*
G01*
X51450*
G75*
G02X50899Y29911I0J1635*
G01*
G75*
G02X50900Y29850I-2653J-65*
G01*
G75*
G02X50388Y28284I-2650J0*
G01*
X50964*
G75*
G02X55700Y26650I2086J-1634*
G01*
G75*
G02X51475Y24519I-2650*
G01*
G75*
G02X51430Y22284I-2425J-1069*
G01*
X54436*
G75*
G02X59700Y21850I2614J-434*
G01*
G75*
G02X58145Y19437I-2650*
G01*
G75*
G02X57649Y19130I-1094J1213*
G01*
X151484Y26672D02*
G75*
G02X164351I6433D01*
G01*
G75*
G02X151484I-6433*
G01*
X168444D02*
G36*
X164351D01*
G75*
G02X151484I-6433*
G01*
X147154*
X144491Y24008*
G75*
G02X141847Y22914I-2640J2639*
G01*
X117050*
G75*
G02X116942Y22916I0J3751*
G01*
X109158*
G75*
G02X109050Y22914I-108J3696*
G01*
X70653*
G75*
G02X68009Y24008I-2J3735*
G01*
X65346Y26672*
X55700*
G75*
G02Y26650I-2654J-11*
G01*
G75*
G02X51475Y24519I-2650*
G01*
G75*
G02X51700Y23450I-2424J-1069*
G01*
G75*
G02X51430Y22284I-2648*
G01*
X54436*
G75*
G02X59700Y21850I2614J-434*
G01*
G75*
G02X58145Y19437I-2650*
G01*
G75*
G02X57649Y19130I-1087J1202*
G01*
X58705*
G75*
G02X61005Y16830J-2300*
G01*
Y6759*
X62951Y4813*
X126900*
X128846Y6759*
Y16830*
G75*
G02X131146Y19130I2300*
G01*
X160902*
X168444Y26672*
G37*
X65346D02*
G36*
X58703Y33316D01*
X58132*
G75*
G02X58900Y31450I-1882J-1866*
G01*
G75*
G02X54164Y29816I-2650*
G01*
X51450*
G75*
G02X50899Y29911I-1J1628*
G01*
X50900Y29850*
G75*
G02X50388Y28284I-2653J1*
G01*
X50964*
G75*
G02X55700Y26672I2086J-1634*
G01*
X65346*
G37*
X178990Y124772D02*
G36*
Y184158D01*
X10861*
Y124772*
G75*
G02X22616Y121361I5324J-3612*
G01*
Y132250*
Y132250*
G75*
G02X23095Y133406I1633*
G01*
X32080Y142391*
G75*
G02X33236Y142870I1156J-1154*
G01*
X43857*
G75*
G02X48029I2086J-1635*
G01*
X142622*
G75*
G02X143778Y142391I0J-1633*
G01*
X145405Y140763*
G75*
G02X145884Y139608I-1154J-1156*
G01*
Y139607*
Y135450*
Y135450*
G75*
G02X145405Y134294I-1633*
G01*
X144144Y133033*
G75*
G02X142989Y132554I-1156J1154*
G01*
X142176*
G75*
G02X142453Y132324I-1094J-1596*
G01*
X144700Y130077*
G75*
G02X147700Y127450I350J-2627*
G01*
G75*
G02X142528Y126637I-2650*
G01*
X140228Y128937*
X134672*
X133382Y127647*
G75*
G02X131977Y127066I-1404J1404*
G01*
X128252*
G75*
G02X126847Y127647I-1J1987*
G01*
X123428Y131066*
X92407*
G75*
G02X88278Y131866I-1757J1984*
G01*
X77072*
X71695Y126489*
G75*
G02X66400Y126650I-2645J161*
G01*
G75*
G02X68889Y129295I2650*
G01*
X74209Y134616*
X58527*
X55806Y131895*
G75*
G02X54650Y131416I-1156J1154*
G01*
X45727*
X44606Y130295*
G75*
G02X43450Y129816I-1156J1154*
G01*
X38650*
G75*
G02X37494Y130295I0J1633*
G01*
X36373Y131416*
X35327*
X32284Y128373*
Y114650*
Y114650*
G75*
G02X31805Y113494I-1633*
G01*
X28695Y110384*
X33103*
X33609Y110891*
G75*
G02X36253Y111984I2640J-2639*
G01*
X36966*
Y116250*
Y116250*
G75*
G02X39450Y118734I2484*
G01*
X40366*
Y121356*
G75*
G02X39400Y123749I2482J2393*
G01*
G75*
G02Y123750I4230J1*
G01*
G75*
G02X46300I3450*
G01*
Y123750*
G75*
G02X45334Y121356I-3450*
G01*
Y116250*
Y116250*
G75*
G02X42850Y113766I-2484*
G01*
X41934*
Y111984*
X52340*
G75*
G02X54650Y112784I2309J-2931*
G01*
X70650*
G75*
G02X74384Y109050J-3734*
G01*
G75*
G02X70650Y105316I-3734*
G01*
X56960*
G75*
G02X54650Y104516I-2309J2931*
G01*
X37797*
X37291Y104009*
G75*
G02X34650Y102916I-2641J2641*
G01*
X29797*
X27184Y100303*
Y90234*
X35448*
G75*
G02X36853Y89653I1J-1987*
G01*
X38672Y87834*
X65009*
G75*
G02X71700Y86649I3240J-1185*
G01*
G75*
G02X71646Y86044I-3450*
G01*
X74461Y88859*
G75*
G02X75866Y89440I1404J-1404*
G01*
X76430*
G75*
G02X80837Y87456I1757J-1983*
G01*
G75*
G02X76571Y85356I-2650*
G01*
X72110Y80895*
G75*
G02X70705Y80314I-1404J1404*
G01*
X44596*
G75*
G02X39317Y80645I-2629J331*
G01*
G75*
G02X41806Y83291I2651J-1*
G01*
X42217Y83702*
G75*
G02X42404Y83866I1396J-1396*
G01*
X37852*
G75*
G02X36447Y84447I-1J1987*
G01*
X36433Y84460*
G75*
G02X34011Y82405I-2583J589*
G01*
X33653Y82047*
G75*
G02X32248Y81466I-1404J1404*
G01*
X30072*
X29634Y81028*
Y66472*
X52272Y43834*
X61848*
G75*
G02X63253Y43253I1J-1987*
G01*
X73072Y33434*
X101078*
G75*
G02X105316Y34133I2372J-1185*
G01*
Y55450*
G75*
G02X106409Y58091I3734*
G01*
X112809Y64491*
G75*
G02X119184Y61850I2641J-2641*
G01*
G75*
G02X118091Y59209I-3734*
G01*
X112784Y53903*
Y34132*
G75*
G02X116810Y33785I1866J-1882*
G01*
G75*
G02X117406Y33405I-559J-1533*
G01*
X118527Y32284*
X139573*
X161016Y53727*
Y61850*
Y61850*
G75*
G02X161495Y63006I1633*
G01*
X165016Y66527*
Y91573*
X153973Y102616*
X126527*
X125084Y101173*
Y87450*
Y87450*
G75*
G02X124605Y86294I-1633*
G01*
X124481Y86170*
G75*
G02X124500Y85854I-2581J-316*
G01*
G75*
G02Y85850I-2637J-2*
G01*
G75*
G02X119200I-2650*
G01*
G75*
G02X121816Y88500I2650J0*
G01*
Y101850*
Y101850*
G75*
G02X122295Y103006I1633*
G01*
X123805Y104516*
X123139*
G75*
G02X120574Y103716I-2322J2934*
G01*
X119453*
X119447*
X118093*
G75*
G02X117607I-243J3731*
G01*
X117050*
G75*
G02X113316Y107450J3734*
G01*
G75*
G02X117050Y111184I3734*
G01*
X117355*
X118313Y111443*
G75*
G02X120253Y111984I1935J-3187*
G01*
X122266*
Y115450*
G75*
G02X123066Y117042I1985J0*
G01*
Y119828*
G75*
G02X121600Y122650I1984J2822*
G01*
Y122650*
G75*
G02X128500I3450*
G01*
Y122650*
G75*
G02X127034Y119828I-3450*
G01*
Y115450*
G75*
G02X126234Y113858I-1985J0*
G01*
Y111984*
X156081*
G75*
G02X158724Y110891I4J-3733*
G01*
X173924Y95691*
G75*
G02X175018Y93050I-2641J-2641*
G01*
Y71076*
G75*
G02X177860Y67450I-892J-3626*
G01*
G75*
G02X176763Y64806I-3734*
G01*
X170383Y58428*
Y51450*
G75*
G02X169290Y48809I-3734*
G01*
X147154Y26672*
X151484*
G75*
G02X164351I6433*
G01*
X168444*
X178990Y37217*
Y117548*
G75*
G02X167232Y121160I-5324J3612*
G01*
G75*
G02X178990Y124772I6433*
G01*
G37*
D02*
D28*
X23450Y63450D03*
X34650Y106650D03*
X42850Y123750D03*
X68250Y86650D03*
X70650Y109050D03*
X75450Y37850D03*
Y45850D03*
X83450Y37850D03*
Y45850D03*
X115450Y61850D03*
X117050Y107450D03*
X125050Y38650D03*
Y46650D03*
Y122650D03*
X133050Y38650D03*
Y46650D03*
X150746Y139543D03*
X171284Y86650D03*
X174126Y67450D03*
D02*
D29*
X33850Y85050D02*
X32250Y83450D01*
X29250*
X27650Y81850*
Y65650*
X51450Y41850*
X61850*
X72250Y31450*
X102650*
X103450Y32250*
X68250Y86650D02*
X67450D01*
X66650Y85850*
X37850*
X35450Y88250*
X23450*
X69050Y126650D02*
X76250Y133850D01*
X89850*
X90650Y133050*
X78187Y87456D02*
X75864D01*
X70707Y82299*
X43620*
X41967Y80645*
X90650Y133050D02*
X124250D01*
X128250Y129050*
X131979*
X133850Y130921*
X141050*
X144521Y127450*
X145050*
X125050Y122650D02*
Y115450D01*
X124250*
Y108250*
D02*
D78*
X12052Y121160D02*
G75*
G03X20319I4133D01*
G01*
G75*
G03X12052I-4133*
G01*
X27800Y26672D02*
G75*
G03X36067I4134D01*
G01*
G75*
G03X27800I-4134*
G01*
X131146Y5806D02*
X127603Y2263D01*
X62248*
X58705Y5806*
Y16830*
X27996*
X8311Y36515*
Y186708*
X181540*
Y36515*
X161855Y16830*
X131146*
Y5806*
X153784Y26672D02*
G75*
G03X162051I4133D01*
G01*
G75*
G03X153784I-4133*
G01*
X169532Y121160D02*
G75*
G03X177799I4133D01*
G01*
G75*
G03X169532I-4133*
G01*
D02*
D91*
X23450Y63450D02*
Y88250D01*
Y101850*
X28250Y106650*
X34650*
X36250Y108250*
X39450*
X70650Y109050D02*
X54650D01*
Y108250*
X39450*
X109050Y26650D02*
Y55450D01*
X115450Y61850*
X109050Y26650D02*
X117050D01*
X109050D02*
X70650D01*
X60250Y37050*
X49850*
X23450Y63450*
X117050Y26650D02*
X141850D01*
X166650Y51450*
Y59974*
X174126Y67450*
X124250Y108250D02*
X120250D01*
X119450Y107450*
X117850*
X120816Y108250*
Y107450*
X117050*
X151284Y108250D02*
X124250D01*
X171284Y86650D02*
Y93050D01*
X156084Y108250*
X151284*
X174126Y67450D02*
X171284D01*
Y86650*
D02*
D118*
X33850Y85050D03*
X39450Y134650D03*
X41967Y80645D03*
X43450Y135450D03*
X44250Y101050D03*
X45943Y141236D03*
X48250Y29850D03*
X49050Y23450D03*
X50650Y101050D03*
X51730Y138086D03*
X53050Y26650D03*
X56250Y31450D03*
Y101050D03*
X57050Y21850D03*
X62650Y101050D03*
X63305Y125881D03*
X69050Y126650D03*
X78187Y87456D03*
X90650Y133050D03*
X103450Y32250D03*
X114650D03*
X117050Y26650D03*
X121850Y85850D03*
X128084Y99450D03*
X129850Y132250D03*
X133684Y99450D03*
X134289Y136551D03*
X137872Y134189D03*
X139284Y99450D03*
X140943Y138126D03*
X144884Y99450D03*
X145050Y127450D03*
X151284Y108250D03*
D02*
D119*
X45943Y141236D02*
X142622D01*
X144250Y139607*
Y135450*
X142989Y134189*
X137872*
X48250Y29850D02*
X17850Y60250D01*
Y104250*
X29050Y115450*
Y129850*
X33850Y134650*
X39450*
X49050Y23450D02*
X47450D01*
X43450Y27450*
Y29850*
X14650Y58650*
Y105850*
X25850Y117050*
Y131450*
X33904Y139504*
X43030*
X44393Y138140*
X51730*
Y138086*
X53050Y26650D02*
X47450D01*
X45050Y29050*
Y30650*
X16250Y59450*
Y105050*
X27450Y116250*
Y130650*
X34650Y137850*
X41850*
X43450Y136250*
Y135450*
X56250Y31450D02*
X51450D01*
X49850Y33050*
X47450*
X19450Y61050*
Y103450*
X30650Y114650*
Y129050*
X34650Y133050*
X37050*
X38650Y131450*
X43450*
X45050Y133050*
X54650*
X57850Y136250*
X125850*
X129850Y132250*
X57050Y21850D02*
Y20650D01*
X47850*
X41850Y26650*
Y29050*
X13050Y57850*
Y106650*
X24250Y117850*
Y132250*
X33236Y141236*
X45943*
X114650Y32250D02*
X116250D01*
X117850Y30650*
X140250*
X162650Y53050*
Y61850*
X166650Y65850*
Y92250*
X154650Y104250*
X125850*
X123450Y101850*
Y87450*
X121850Y85850*
X134289Y136551D02*
X132990Y137850D01*
X57050*
X53850Y134650*
X44250*
X43450Y135450*
X140943Y138126D02*
X139619Y139450D01*
X53094*
X51730Y138086*
D02*
D132*
X42850Y123750D02*
Y116250D01*
X39450*
Y108250*
X0Y0D02*
M02*
