%FSLAX23Y23*%
%MOIN*%
G04 EasyPC Gerber Version 17.0 Build 3379 *
%ADD109R,0.01535X0.05197*%
%ADD117R,0.03600X0.05700*%
%ADD116R,0.03600X0.06300*%
%ADD111R,0.05000X0.12500*%
%ADD24R,0.05500X0.06000*%
%ADD112R,0.05906X0.19685*%
%ADD78C,0.00100*%
%ADD10C,0.00500*%
%ADD119C,0.00800*%
%ADD29C,0.01500*%
%ADD132C,0.02500*%
%ADD118C,0.03200*%
%ADD28C,0.04800*%
%ADD91C,0.05000*%
%ADD113R,0.04000X0.02000*%
%ADD114R,0.04771X0.02000*%
%ADD108R,0.14900X0.03100*%
%ADD115R,0.05700X0.03600*%
%ADD87R,0.06000X0.05500*%
%ADD110R,0.23622X0.12992*%
X0Y0D02*
D02*
D10*
X302Y1168D02*
Y1025D01*
X354Y973*
X378*
Y1007*
X353Y1033*
G75*
G02X312Y1067I-7J34*
G01*
G75*
G02X381I35*
G01*
G75*
G02X381Y1061I-34J0*
G01*
X408Y1033*
Y1128*
X352*
Y1148*
X352*
G75*
G02X344Y1150J18*
G01*
G75*
G02X302Y1168I-10J34*
G01*
G36*
Y1025*
X354Y973*
X378*
Y1007*
X353Y1033*
G75*
G02X312Y1067I-7J34*
G01*
G75*
G02X381I35*
G01*
G75*
G02X381Y1061I-34J0*
G01*
X408Y1033*
Y1128*
X352*
Y1148*
X352*
G75*
G02X344Y1150J18*
G01*
G75*
G02X302Y1168I-10J34*
G01*
G37*
X369Y1205D02*
X405D01*
Y1212*
G75*
G02X440Y1270I23J26*
G01*
X390Y1320*
G75*
G02X369Y1338I5J26*
G01*
Y1205*
G36*
X405*
Y1212*
G75*
G02X440Y1270I23J26*
G01*
X390Y1320*
G75*
G02X369Y1338I5J26*
G01*
Y1205*
G37*
X488Y1423D02*
X499Y1412D01*
G75*
G02X504Y1404I-14J-14*
G01*
G75*
G02X537Y1363I13J-23*
G01*
Y1334*
X566Y1306*
Y1359*
X627*
Y1287*
G75*
G02X629Y1287I7J-28*
G01*
Y1359*
X668*
X604Y1423*
X488*
G36*
X499Y1412*
G75*
G02X504Y1404I-14J-14*
G01*
G75*
G02X537Y1363I13J-23*
G01*
Y1334*
X566Y1306*
Y1359*
X627*
Y1287*
G75*
G02X629Y1287I7J-28*
G01*
Y1359*
X668*
X604Y1423*
X488*
G37*
X669Y973D02*
X725D01*
Y966*
X775Y1010*
Y1149*
G75*
G02X725Y1142I-29J21*
G01*
Y1128*
X702*
X705Y1125*
G75*
G02X741Y1091I2J-34*
G01*
G75*
G02X672I-35*
G01*
G75*
G02X674Y1101I34J0*
G01*
X669Y1105*
Y973*
G36*
X725*
Y966*
X775Y1010*
Y1149*
G75*
G02X725Y1142I-29J21*
G01*
Y1128*
X702*
X705Y1125*
G75*
G02X741Y1091I2J-34*
G01*
G75*
G02X672I-35*
G01*
G75*
G02X674Y1101I34J0*
G01*
X669Y1105*
Y973*
G37*
X700Y896D02*
G75*
G02X717Y867I-17J-30D01*
G01*
G75*
G02X716Y861I-35J0*
G01*
X759*
G75*
G02X759Y860I0J-18*
G01*
G75*
G02X755Y875I22J14*
G01*
G75*
G02X807Y882I27*
G01*
X815Y874*
Y876*
X885*
Y881*
X815*
Y951*
X762Y904*
G75*
G02X725Y898I-24J27*
G01*
Y896*
X700*
G36*
G75*
G02X717Y867I-17J-30*
G01*
G75*
G02X716Y861I-35J0*
G01*
X759*
G75*
G02X759Y860I0J-18*
G01*
G75*
G02X755Y875I22J14*
G01*
G75*
G02X807Y882I27*
G01*
X815Y874*
Y876*
X885*
Y881*
X815*
Y951*
X762Y904*
G75*
G02X725Y898I-24J27*
G01*
Y896*
X700*
G37*
X964Y166D02*
X971D01*
Y241*
X1072*
Y273*
X1067*
G75*
G02X1054Y278J18*
G01*
X1036Y296*
G75*
G02X1008Y323I-1J26*
G01*
G75*
G02X1061I27*
G01*
G75*
G02X1061Y321I-26J0*
G01*
X1074Y309*
X1086*
G75*
G02X1088Y309I4J-18*
G01*
G75*
G02X1096Y309I4J-19*
G01*
X1107*
X1120Y321*
G75*
G02X1120Y323I26J1*
G01*
G75*
G02X1173I27*
G01*
G75*
G02X1164Y303I-27*
G01*
G75*
G02X1207Y266I6J-37*
G01*
Y241*
X1291*
Y179*
G75*
G02X1311Y191I21J-10*
G01*
X1609*
X1792Y375*
Y1179*
G75*
G02X1672Y1212I-56J32*
G01*
G75*
G02X1792Y1244I64*
G01*
Y1844*
X106*
Y1244*
G75*
G02X226Y1212I56J-32*
G01*
G75*
G02X106Y1179I-64*
G01*
Y375*
X289Y191*
X587*
G75*
G02X608Y177J-23*
G01*
Y195*
X603Y200*
X590*
G75*
G02X545Y213I-19J18*
G01*
G75*
G02X539Y212I-6J13*
G01*
X505*
G75*
G02X464Y234I-14J23*
G01*
G75*
G02X506Y256I27*
G01*
G75*
G02X511Y284I24J11*
G01*
X505*
G75*
G02X456Y299I-22J15*
G01*
G75*
G02X505Y313I27*
G01*
X536*
G75*
G02X536Y315I26J2*
G01*
G75*
G02X589I27*
G01*
G75*
G02X589Y313I-27J0*
G01*
X787*
G75*
G02X797Y309J-15*
G01*
X825Y281*
X914*
G75*
G02X925Y277J-15*
G01*
X949Y253*
G75*
G02X953Y243I-10J-10*
G01*
Y177*
X964Y166*
X199Y567D02*
Y625D01*
G75*
G02Y644I35J9*
G01*
Y701*
G75*
G02X219Y732I36*
G01*
Y811*
X304*
Y731*
X280*
Y728*
G75*
G02X274Y715I-18*
G01*
X269Y709*
G75*
G02X270Y701I-34J-9*
G01*
Y644*
G75*
G02Y625I-35J-9*
G01*
Y567*
X338*
Y511*
X164*
Y567*
X199*
X248Y1482D02*
Y1547D01*
G75*
G02X247Y1555I35J7*
G01*
Y1563*
G75*
G02X248Y1570I36*
G01*
Y1630*
X323*
Y1480*
X316*
G75*
G02X308Y1441I-33J-13*
G01*
X302Y1436*
Y1422*
G75*
G02X309Y1431I32J-16*
G01*
X357Y1480*
X348*
Y1630*
X423*
Y1480*
X415*
G75*
G02X412Y1433I-29J-21*
G01*
X369Y1391*
Y1355*
G75*
G02X411Y1367I25J-8*
G01*
G75*
G02X460Y1363I23J-13*
G01*
X466Y1357*
Y1387*
G75*
G02X433Y1412I-6J26*
G01*
G75*
G02X453Y1438I27*
G01*
G75*
G02X454Y1480I29J20*
G01*
X448*
Y1630*
X523*
Y1494*
X548*
Y1630*
X623*
Y1560*
G75*
G02X668Y1556I20J-30*
G01*
X728Y1495*
Y1630*
X803*
Y1480*
X800*
X858Y1422*
X904*
Y1357*
G75*
G02X906Y1357I2J-26*
G01*
Y1422*
X967*
Y1340*
X931*
G75*
G02X909Y1304I-25J-9*
G01*
X899Y1294*
Y1005*
X918Y986*
G75*
G02X924Y972I-14J-14*
G01*
Y790*
G75*
G02X918Y776I-20*
G01*
X879Y738*
Y690*
X891*
Y667*
X1014*
G75*
G02X1035Y667I11J-17*
G01*
G75*
G02X1045Y655I-8J-18*
G01*
X1079Y621*
G75*
G02X1085Y608I-13J-13*
G01*
Y569*
X1097*
Y481*
X1036*
Y569*
X1049*
Y601*
X1021Y628*
X891*
Y605*
X811*
Y690*
X840*
Y746*
G75*
G02X846Y760I20*
G01*
X877Y791*
X815*
Y819*
G75*
G02X813Y821I11J16*
G01*
X786Y848*
G75*
G02X778Y848I-4J26*
G01*
X789Y837*
G75*
G02X795Y825I-13J-13*
G01*
Y761*
G75*
G02X789Y749I-18*
G01*
X772Y731*
Y701*
X689*
Y703*
X637*
Y740*
X616*
X600Y725*
G75*
G02X587Y719I-14J14*
G01*
X580*
Y709*
X498*
Y769*
X567*
Y772*
X498*
Y833*
X568*
X587Y851*
Y896*
X469*
Y881*
G75*
G02X463Y867I-20*
G01*
X439Y843*
Y824*
G75*
G02X446Y806I-20J-18*
G01*
G75*
G02X394Y800I-27*
G01*
Y731*
X309*
Y811*
X393*
G75*
G02X400Y824I26J-4*
G01*
Y851*
G75*
G02X400Y855I20J0*
G01*
X395*
X376Y837*
G75*
G02X363Y831I-14J14*
G01*
X356*
G75*
G02X312Y851I-18J20*
G01*
G75*
G02X355Y871I27*
G01*
X373Y888*
G75*
G02X387Y894I14J-14*
G01*
X398*
X401Y896*
X352*
Y906*
G75*
G02X313Y913I-13J33*
G01*
X241Y985*
G75*
G02X231Y1011I25J25*
G01*
Y1450*
G75*
G02X241Y1476I36*
G01*
X248Y1482*
X255Y267D02*
G75*
G02X384I64D01*
G01*
G75*
G02X255I-64*
G01*
X561Y511D02*
X387D01*
Y567*
X561*
Y511*
X718Y379D02*
G75*
G02X791I37D01*
G01*
G75*
G02X718I-37*
G01*
Y459D02*
G75*
G02X791I37D01*
G01*
G75*
G02X718I-37*
G01*
X798Y379D02*
G75*
G02X871I37D01*
G01*
G75*
G02X798I-37*
G01*
Y459D02*
G75*
G02X871I37D01*
G01*
G75*
G02X798I-37*
G01*
X811Y515D02*
Y600D01*
X891*
Y515*
X811*
X828Y1480D02*
Y1630D01*
X903*
Y1480*
X828*
X945Y481D02*
Y569D01*
X1006*
Y481*
X945*
X1008Y1480D02*
Y1630D01*
X1083*
Y1480*
X1008*
X1012Y1087D02*
X991D01*
Y1172*
X1061*
Y1177*
X991*
Y1262*
X1030*
Y1305*
G75*
G02X1035Y1318I18*
G01*
X1039Y1322*
X985*
Y1404*
X1046*
Y1329*
X1048Y1331*
Y1404*
X1094*
X1127Y1437*
Y1480*
X1108*
Y1630*
X1183*
Y1480*
X1163*
Y1429*
G75*
G02X1158Y1417I-18*
G01*
X1109Y1368*
Y1345*
X1288Y1524*
Y1630*
X1363*
Y1507*
G75*
G02X1388Y1516I24J-26*
G01*
Y1630*
X1463*
Y1480*
X1422*
G75*
G02X1412Y1455I-35J1*
G01*
X1348Y1392*
G75*
G02X1369Y1367I-5J-26*
G01*
G75*
G02X1387Y1367I9J-25*
G01*
G75*
G02X1383Y1381I22J14*
G01*
G75*
G02X1436I27*
G01*
G75*
G02X1431Y1365I-27*
G01*
Y1338*
G75*
G02X1426Y1326I-16*
G01*
X1413Y1313*
Y1287*
X1424Y1276*
G75*
G02X1466Y1296I26J-1*
G01*
Y1298*
X1535*
Y1300*
X1466*
Y1361*
X1497*
G75*
G02X1507Y1432I11J35*
G01*
X1497Y1441*
G75*
G02X1489Y1480I25J25*
G01*
X1488*
Y1630*
X1563*
Y1480*
X1560*
X1596Y1444*
G75*
G02X1599Y1440I-25J-25*
G01*
Y1444*
G75*
G02X1593Y1480I27J22*
G01*
X1588*
Y1630*
X1663*
Y1480*
G75*
G02X1670Y1459I-28J-21*
G01*
Y979*
G75*
G02X1660Y953I-36*
G01*
X1596Y889*
G75*
G02X1589Y884I-25J25*
G01*
X1683*
G75*
G02X1691Y894I29J-18*
G01*
Y933*
G75*
G02X1697Y945I18*
G01*
X1699Y947*
X1699*
Y1032*
X1779*
Y947*
X1749*
X1728Y925*
Y898*
G75*
G02X1747Y867I-15J-31*
G01*
G75*
G02X1683Y849I-35*
G01*
X1528*
X1549Y828*
X1557*
Y831*
X1618*
Y833*
X1700*
Y772*
X1618*
Y786*
X1560*
Y756*
X1618*
Y769*
X1700*
Y742*
X1732Y709*
G75*
G02X1764Y647I9J-35*
G01*
X1702Y585*
Y551*
X1753*
Y495*
X1688*
G75*
G02X1644I-22J28*
G01*
X1579*
Y551*
X1631*
Y599*
G75*
G02X1641Y624I36*
G01*
X1703Y687*
X1682Y709*
X1618*
Y711*
X1557*
Y748*
X1526*
X1504Y726*
G75*
G02X1500Y723I-13J13*
G01*
Y709*
X1418*
Y769*
X1487*
Y772*
X1418*
Y818*
G75*
G02X1415Y828I15J9*
G01*
Y880*
X1299*
Y870*
G75*
G02X1293Y856I-20*
G01*
X1249Y812*
G75*
G02X1235Y806I-14J14*
G01*
X1184*
G75*
G02X1170Y812J20*
G01*
X1035Y947*
G75*
G02X1029Y961I14J14*
G01*
Y1065*
X1017Y1077*
G75*
G02X1012Y1087I14J14*
G01*
X1130Y819D02*
G75*
G02X1141Y808J-11D01*
G01*
Y745*
G75*
G02X1130Y734I-11*
G01*
X1004*
G75*
G02X993Y745J11*
G01*
Y808*
G75*
G02X1004Y819I11*
G01*
X1130*
X1137Y569D02*
Y589D01*
G75*
G02X1120Y619I18J29*
G01*
G75*
G02X1189I35*
G01*
G75*
G02X1173Y589I-35*
G01*
Y569*
X1188*
Y566*
X1214*
Y578*
X1296*
Y516*
X1214*
Y527*
X1188*
Y481*
X1127*
Y569*
X1137*
X1214Y641D02*
X1296D01*
Y580*
X1214*
Y641*
X1214Y387D02*
G75*
G02X1287I37D01*
G01*
G75*
G02X1214I-37*
G01*
Y467D02*
G75*
G02X1287I37D01*
G01*
G75*
G02X1214I-37*
G01*
X1294Y387D02*
G75*
G02X1367I37D01*
G01*
G75*
G02X1294I-37*
G01*
Y467D02*
G75*
G02X1367I37D01*
G01*
G75*
G02X1294I-37*
G01*
X1356Y551D02*
X1530D01*
Y495*
X1356*
Y551*
X1515Y267D02*
G75*
G02X1644I64D01*
G01*
G75*
G02X1515I-64*
G01*
X1779Y1122D02*
Y1037D01*
X1699*
Y1122*
X1779*
X106Y661D02*
G36*
Y610D01*
X199*
Y625*
G75*
G02Y644I35J9*
G01*
Y661*
X106*
G37*
X199D02*
G36*
Y701D01*
G75*
G02X219Y732I36*
G01*
Y776*
X106*
Y661*
X199*
G37*
X270D02*
G36*
Y644D01*
G75*
G02Y625I-35J-9*
G01*
Y610*
X811*
Y661*
X270*
G37*
X811D02*
G36*
Y690D01*
X840*
Y746*
G75*
G02X846Y760I20*
G01*
X877Y791*
X815*
Y819*
G75*
G02X813Y821I11J16*
G01*
X786Y848*
G75*
G02X778Y848I-4J26*
G01*
X789Y837*
G75*
G02X795Y825I-13J-13*
G01*
Y761*
G75*
G02X789Y749I-18*
G01*
X772Y731*
Y701*
X689*
Y703*
X637*
Y740*
X616*
X600Y725*
G75*
G02X587Y719I-14J14*
G01*
X580*
Y709*
X498*
Y769*
X567*
Y772*
X498*
Y833*
X568*
X587Y851*
Y896*
X469*
Y881*
G75*
G02X463Y867I-20*
G01*
X439Y843*
Y824*
G75*
G02X446Y806I-20J-18*
G01*
G75*
G02X394Y800I-27*
G01*
Y731*
X309*
Y776*
X304*
Y731*
X280*
Y728*
G75*
G02X274Y715I-18*
G01*
X269Y709*
G75*
G02X270Y701I-34J-9*
G01*
Y661*
X811*
G37*
X1042D02*
G36*
G75*
G02X1045Y655I-16J-11D01*
G01*
X1079Y621*
G75*
G02X1084Y610I-13J-13*
G01*
X1121*
G75*
G02X1120Y619I33J8*
G01*
G75*
G02X1189I35*
G01*
G75*
G02X1188Y610I-35*
G01*
X1214*
Y641*
X1296*
Y610*
X1632*
G75*
G02X1641Y624I34J-11*
G01*
X1677Y661*
X1042*
G37*
X1677D02*
G36*
X1703Y687D01*
X1682Y709*
X1618*
Y711*
X1557*
Y748*
X1526*
X1504Y726*
G75*
G02X1500Y723I-13J13*
G01*
Y709*
X1418*
Y769*
X1487*
Y772*
X1418*
Y776*
X1141*
Y745*
G75*
G02X1130Y734I-11*
G01*
X1004*
G75*
G02X993Y745J11*
G01*
Y776*
X918*
X918Y776*
X879Y738*
Y690*
X891*
Y667*
X1014*
G75*
G02X1035Y667I11J-17*
G01*
G75*
G02X1042Y661I-8J-18*
G01*
X1677*
G37*
X1774D02*
G36*
G75*
G02X1764Y647I-33J14D01*
G01*
X1727Y610*
X1792*
Y661*
X1774*
G37*
X1792D02*
G36*
Y776D01*
X1700*
Y772*
X1618*
Y786*
X1560*
Y756*
X1618*
Y769*
X1700*
Y742*
X1732Y709*
G75*
G02X1774Y661I9J-35*
G01*
X1792*
G37*
X214Y267D02*
G36*
X289Y191D01*
X587*
G75*
G02X608Y177J-23*
G01*
Y195*
X603Y200*
X590*
G75*
G02X545Y213I-19J18*
G01*
G75*
G02X539Y212I-6J13*
G01*
X505*
G75*
G02X464Y234I-14J23*
G01*
G75*
G02X506Y256I27*
G01*
G75*
G02X504Y267I24J11*
G01*
X384*
G75*
G02X255I-64*
G01*
X214*
G37*
X255D02*
G36*
G75*
G02X384I64D01*
G01*
X504*
G75*
G02X511Y284I27J0*
G01*
X505*
G75*
G02X456Y299I-22J15*
G01*
G75*
G02X505Y313I27*
G01*
X536*
G75*
G02X536Y315I26J2*
G01*
G75*
G02X589I27*
G01*
G75*
G02X589Y313I-27J0*
G01*
X787*
G75*
G02X797Y309J-15*
G01*
X825Y281*
X914*
G75*
G02X925Y277J-15*
G01*
X949Y253*
G75*
G02X953Y243I-10J-10*
G01*
Y177*
X964Y166*
X971*
Y241*
X1072*
Y273*
X1067*
G75*
G02X1054Y278J18*
G01*
X1036Y296*
G75*
G02X1008Y323I-1J26*
G01*
G75*
G02X1061I27*
G01*
G75*
G02X1061Y321I-26J0*
G01*
X1074Y309*
X1086*
G75*
G02X1088Y309I4J-18*
G01*
G75*
G02X1096Y309I4J-19*
G01*
X1107*
X1120Y321*
G75*
G02X1120Y323I26J1*
G01*
G75*
G02X1173I27*
G01*
G75*
G02X1164Y303I-27*
G01*
G75*
G02X1207Y267I6J-37*
G01*
X1515*
G75*
G02X1644I64*
G01*
X1684*
X1792Y375*
Y379*
X1366*
G75*
G02X1295I-36J8*
G01*
X1286*
G75*
G02X1215I-36J8*
G01*
X871*
G75*
G02X798I-37*
G01*
X791*
G75*
G02X718I-37*
G01*
X106*
Y375*
X214Y267*
X255*
G37*
X1207D02*
G36*
G75*
G02Y266I-37J0D01*
G01*
Y241*
X1291*
Y179*
G75*
G02X1311Y191I21J-10*
G01*
X1609*
X1684Y267*
X1644*
G75*
G02X1515I-64*
G01*
X1207*
G37*
X106Y539D02*
G36*
Y459D01*
X718*
G75*
G02X791I37*
G01*
X798*
G75*
G02X871I37*
G01*
X1215*
G75*
G02X1214Y467I36J8*
G01*
G75*
G02X1287I37*
G01*
G75*
G02X1286Y459I-37J0*
G01*
X1295*
G75*
G02X1294Y467I36J8*
G01*
G75*
G02X1367I37*
G01*
G75*
G02X1366Y459I-37J0*
G01*
X1792*
Y539*
X1753*
Y495*
X1688*
G75*
G02X1644I-22J28*
G01*
X1579*
Y539*
X1530*
Y495*
X1356*
Y539*
X1296*
Y516*
X1214*
Y527*
X1188*
Y481*
X1127*
Y539*
X1097*
Y481*
X1036*
Y539*
X1006*
Y481*
X945*
Y539*
X891*
Y515*
X811*
Y539*
X561*
Y511*
X387*
Y539*
X338*
Y511*
X164*
Y539*
X106*
G37*
X164D02*
G36*
Y567D01*
X199*
Y610*
X106*
Y539*
X164*
G37*
X387D02*
G36*
Y567D01*
X561*
Y539*
X811*
Y600*
X891*
Y539*
X945*
Y569*
X1006*
Y539*
X1036*
Y569*
X1049*
Y601*
X1021Y628*
X891*
Y605*
X811*
Y610*
X270*
Y567*
X338*
Y539*
X387*
G37*
X1127D02*
G36*
Y569D01*
X1137*
Y589*
G75*
G02X1121Y610I18J29*
G01*
X1084*
G75*
G02X1085Y608I-18J-2*
G01*
Y569*
X1097*
Y539*
X1127*
G37*
X1356D02*
G36*
Y551D01*
X1530*
Y539*
X1579*
Y551*
X1631*
Y599*
G75*
G02X1632Y610I36*
G01*
X1296*
Y580*
X1214*
Y610*
X1188*
G75*
G02X1173Y589I-33J9*
G01*
Y569*
X1188*
Y566*
X1214*
Y578*
X1296*
Y539*
X1356*
G37*
X1792D02*
G36*
Y610D01*
X1727*
X1702Y585*
Y551*
X1753*
Y539*
X1792*
G37*
X718Y379D02*
G36*
G75*
G02X791I37D01*
G01*
X798*
G75*
G02X871I37*
G01*
X1215*
G75*
G02X1214Y387I36J8*
G01*
G75*
G02X1287I37*
G01*
G75*
G02X1286Y379I-37J0*
G01*
X1295*
G75*
G02X1294Y387I36J8*
G01*
G75*
G02X1367I37*
G01*
G75*
G02X1366Y379I-37J0*
G01*
X1792*
Y459*
X1366*
G75*
G02X1295I-36J8*
G01*
X1286*
G75*
G02X1215I-36J8*
G01*
X871*
G75*
G02X798I-37*
G01*
X791*
G75*
G02X718I-37*
G01*
X106*
Y379*
X718*
G37*
X106Y1555D02*
G36*
Y1244D01*
G75*
G02X226Y1212I56J-32*
G01*
G75*
G02X106Y1179I-64*
G01*
Y1080*
X231*
Y1450*
G75*
G02X241Y1476I36*
G01*
X248Y1482*
Y1547*
G75*
G02X247Y1555I35J7*
G01*
X106*
G37*
X247D02*
G36*
Y1563D01*
G75*
G02X248Y1570I36*
G01*
Y1630*
X323*
Y1480*
X316*
G75*
G02X308Y1441I-33J-13*
G01*
X302Y1436*
Y1422*
G75*
G02X309Y1431I32J-16*
G01*
X357Y1480*
X348*
Y1630*
X423*
Y1480*
X415*
G75*
G02X412Y1433I-29J-21*
G01*
X369Y1391*
Y1355*
G75*
G02X411Y1367I25J-8*
G01*
G75*
G02X460Y1363I23J-13*
G01*
X466Y1357*
Y1387*
G75*
G02X433Y1412I-6J26*
G01*
G75*
G02X453Y1438I27*
G01*
G75*
G02X454Y1480I29J20*
G01*
X448*
Y1630*
X523*
Y1494*
X548*
Y1630*
X623*
Y1560*
G75*
G02X668Y1556I20J-30*
G01*
X728Y1495*
Y1630*
X803*
Y1555*
X828*
Y1630*
X903*
Y1555*
X1008*
Y1630*
X1083*
Y1555*
X1108*
Y1630*
X1183*
Y1480*
X1163*
Y1429*
G75*
G02X1158Y1417I-18*
G01*
X1109Y1368*
Y1345*
X1288Y1524*
Y1630*
X1363*
Y1507*
G75*
G02X1388Y1516I24J-26*
G01*
Y1630*
X1463*
Y1480*
X1422*
G75*
G02X1412Y1455I-35J1*
G01*
X1348Y1392*
G75*
G02X1369Y1367I-5J-26*
G01*
G75*
G02X1387Y1367I9J-25*
G01*
G75*
G02X1383Y1381I22J14*
G01*
G75*
G02X1436I27*
G01*
G75*
G02X1431Y1365I-27*
G01*
Y1338*
G75*
G02X1426Y1326I-16*
G01*
X1413Y1313*
Y1287*
X1424Y1276*
G75*
G02X1466Y1296I26J-1*
G01*
Y1298*
X1535*
Y1300*
X1466*
Y1361*
X1497*
G75*
G02X1507Y1432I11J35*
G01*
X1497Y1441*
G75*
G02X1489Y1480I25J25*
G01*
X1488*
Y1630*
X1563*
Y1480*
X1560*
X1596Y1444*
G75*
G02X1599Y1440I-25J-25*
G01*
Y1444*
G75*
G02X1593Y1480I27J22*
G01*
X1588*
Y1630*
X1663*
Y1555*
X1792*
Y1844*
X106*
Y1555*
X247*
G37*
X803D02*
G36*
Y1480D01*
X800*
X858Y1422*
X904*
Y1357*
G75*
G02X906Y1357I2J-26*
G01*
Y1422*
X967*
Y1340*
X931*
G75*
G02X909Y1304I-25J-9*
G01*
X899Y1294*
Y1080*
X1015*
G75*
G02X1012Y1087I16J12*
G01*
X991*
Y1172*
X1061*
Y1177*
X991*
Y1262*
X1030*
Y1305*
G75*
G02X1035Y1318I18*
G01*
X1039Y1322*
X985*
Y1404*
X1046*
Y1329*
X1048Y1331*
Y1404*
X1094*
X1127Y1437*
Y1480*
X1108*
Y1555*
X1083*
Y1480*
X1008*
Y1555*
X903*
Y1480*
X828*
Y1555*
X803*
G37*
X1663D02*
G36*
Y1480D01*
G75*
G02X1670Y1459I-28J-21*
G01*
Y1080*
X1699*
Y1122*
X1779*
Y1080*
X1792*
Y1179*
G75*
G02X1672Y1212I-56J32*
G01*
G75*
G02X1792Y1244I64*
G01*
Y1555*
X1663*
G37*
X219Y776D02*
G36*
Y811D01*
X304*
Y776*
X309*
Y811*
X393*
G75*
G02X400Y824I26J-4*
G01*
Y851*
G75*
G02X400Y855I20J0*
G01*
X395*
X376Y837*
G75*
G02X363Y831I-14J14*
G01*
X356*
G75*
G02X312Y851I-18J20*
G01*
G75*
G02X355Y871I27*
G01*
X373Y888*
G75*
G02X387Y894I14J-14*
G01*
X398*
X401Y896*
X352*
Y906*
G75*
G02X313Y913I-13J33*
G01*
X241Y985*
G75*
G02X231Y1011I25J25*
G01*
Y1080*
X106*
Y776*
X219*
G37*
X993D02*
G36*
Y808D01*
G75*
G02X1004Y819I11*
G01*
X1130*
G75*
G02X1141Y808J-11*
G01*
Y776*
X1418*
Y818*
G75*
G02X1415Y828I15J9*
G01*
Y880*
X1299*
Y870*
G75*
G02X1293Y856I-20*
G01*
X1249Y812*
G75*
G02X1235Y806I-14J14*
G01*
X1184*
G75*
G02X1170Y812J20*
G01*
X1035Y947*
G75*
G02X1029Y961I14J14*
G01*
Y1065*
X1017Y1077*
G75*
G02X1015Y1080I14J14*
G01*
X899*
Y1005*
X918Y986*
G75*
G02X924Y972I-14J-14*
G01*
Y790*
G75*
G02X918Y776I-20J0*
G01*
X993*
G37*
X1792D02*
G36*
Y1080D01*
X1779*
Y1037*
X1699*
Y1080*
X1670*
Y979*
G75*
G02X1660Y953I-36*
G01*
X1596Y889*
G75*
G02X1589Y884I-25J25*
G01*
X1683*
G75*
G02X1691Y894I29J-18*
G01*
Y933*
G75*
G02X1697Y945I18*
G01*
X1699Y947*
X1699*
Y1032*
X1779*
Y947*
X1749*
X1728Y925*
Y898*
G75*
G02X1747Y867I-15J-31*
G01*
G75*
G02X1683Y849I-35*
G01*
X1528*
X1549Y828*
X1557*
Y831*
X1618*
Y833*
X1700*
Y776*
X1792*
G37*
X1132Y1128D02*
Y1003D01*
X1182Y953*
Y957*
X1204*
X1156Y1006*
G75*
G02X1150Y1019I14J14*
G01*
Y1047*
G75*
G02X1136Y1075I20J28*
G01*
G75*
G02X1205I35*
G01*
G75*
G02X1189Y1045I-35*
G01*
Y1028*
X1238Y978*
Y1112*
X1182*
Y1120*
G75*
G02X1149Y1118I-18J31*
G01*
X1141Y1122*
G75*
G02X1132Y1128I15J32*
G01*
G36*
Y1003*
X1182Y953*
Y957*
X1204*
X1156Y1006*
G75*
G02X1150Y1019I14J14*
G01*
Y1047*
G75*
G02X1136Y1075I20J28*
G01*
G75*
G02X1205I35*
G01*
G75*
G02X1189Y1045I-35*
G01*
Y1028*
X1238Y978*
Y1112*
X1182*
Y1120*
G75*
G02X1149Y1118I-18J31*
G01*
X1141Y1122*
G75*
G02X1132Y1128I15J32*
G01*
G37*
X1191Y1189D02*
X1236D01*
Y1195*
G75*
G02X1216Y1227I15J31*
G01*
G75*
G02X1284Y1235I35*
G01*
Y1300*
G75*
G02X1273Y1316I15J22*
G01*
X1191Y1235*
Y1189*
G36*
X1236*
Y1195*
G75*
G02X1216Y1227I15J31*
G01*
G75*
G02X1284Y1235I35*
G01*
Y1300*
G75*
G02X1273Y1316I15J22*
G01*
X1191Y1235*
Y1189*
G37*
X1305Y1348D02*
G75*
G02X1313Y1300I-6J-26D01*
G01*
Y1223*
X1341Y1195*
G75*
G02X1344Y1189I-10J-10*
G01*
X1390*
Y1215*
X1348Y1257*
G75*
G02X1343Y1269I11J11*
G01*
Y1311*
X1332Y1323*
G75*
G02X1327Y1334I11J11*
G01*
Y1344*
G75*
G02X1317Y1361I16J21*
G01*
X1305Y1348*
G36*
G75*
G02X1313Y1300I-6J-26*
G01*
Y1223*
X1341Y1195*
G75*
G02X1344Y1189I-10J-10*
G01*
X1390*
Y1215*
X1348Y1257*
G75*
G02X1343Y1269I11J11*
G01*
Y1311*
X1332Y1323*
G75*
G02X1327Y1334I11J11*
G01*
Y1344*
G75*
G02X1317Y1361I16J21*
G01*
X1305Y1348*
G37*
X1499Y957D02*
X1555D01*
Y950*
X1599Y993*
Y1176*
G75*
G02X1572Y1162I-29J21*
G01*
X1555Y1145*
Y1112*
X1528*
Y1105*
G75*
G02X1499Y1060I-15J-22*
G01*
Y957*
G36*
X1555*
Y950*
X1599Y993*
Y1176*
G75*
G02X1572Y1162I-29J21*
G01*
X1555Y1145*
Y1112*
X1528*
Y1105*
G75*
G02X1499Y1060I-15J-22*
G01*
Y957*
G37*
D02*
D24*
X851Y558D03*
Y648D03*
X855Y833D03*
Y923D03*
X1031Y1130D03*
Y1220D03*
X1738Y989D03*
Y1080D03*
D02*
D28*
X234Y635D03*
X347Y1067D03*
X429Y1238D03*
X683Y867D03*
X707Y1091D03*
X755Y379D03*
Y459D03*
X835Y379D03*
Y459D03*
X1155Y619D03*
X1171Y1075D03*
X1250Y387D03*
Y467D03*
Y1227D03*
X1331Y387D03*
Y467D03*
X1507Y1395D03*
X1713Y867D03*
X1741Y675D03*
D02*
D29*
X234Y555D02*
X251Y539D01*
X234Y701D02*
X262Y728D01*
Y771*
X282Y1466D02*
Y1555D01*
X334Y1184D02*
X352Y1166D01*
X372*
X339Y851D02*
X363D01*
X387Y875*
X406*
X423Y891*
Y932*
X423Y932*
Y935*
X352Y750D02*
Y726D01*
Y791D02*
Y816D01*
X372Y935D02*
Y939D01*
X339*
X374Y771D02*
X399D01*
X387Y1555D02*
Y1459D01*
X395Y1347D02*
X401D01*
Y1337*
X499Y1239*
Y1166*
X500*
X398Y935D02*
X399D01*
Y1015*
X347Y1067*
X347*
X398Y1148D02*
Y1123D01*
Y1185D02*
Y1210D01*
X407Y539D02*
X382D01*
X420Y806D02*
Y851D01*
X450Y881*
Y934*
X449Y935*
X423Y1166D02*
Y1215D01*
X443Y1238*
X429*
X428Y1050D02*
X403D01*
X434Y1355D02*
Y1353D01*
X442*
X457Y1338*
Y1317*
X576Y1198*
Y1166*
X577*
X474Y531D02*
Y506D01*
Y547D02*
Y572D01*
X483Y1459D02*
Y1552D01*
X485Y1555*
X541Y539D02*
X566D01*
X551Y1166D02*
Y1063D01*
X539Y1050*
X577Y916D02*
Y891D01*
Y935D02*
Y1012D01*
X539Y1050*
X585Y1531D02*
X643D01*
X586Y1318D02*
X561D01*
X596Y1339D02*
Y1364D01*
X602Y935D02*
X605D01*
Y844*
X559Y798*
Y802*
X539*
X602Y1166D02*
X602D01*
Y1207*
X485Y1323*
Y1398*
X471Y1412*
X459*
X603Y763D02*
Y755D01*
X587Y739*
X539*
X539Y739*
X628Y1166D02*
Y1174D01*
X627Y1176*
Y1217*
X517Y1326*
Y1381*
X635Y1259D02*
Y1259D01*
X633*
X649Y1050D02*
X674D01*
X651Y131D02*
Y178D01*
X611Y219*
X571*
X654Y935D02*
Y895D01*
X683Y867*
X670Y725D02*
X725D01*
X731Y731*
X670Y800D02*
X725D01*
X731Y794*
X670Y800D02*
Y817D01*
X629Y859*
Y933*
X628Y934*
Y935*
X679D02*
Y987D01*
X707*
X591Y1102*
X539*
Y1050*
X679Y953D02*
Y978D01*
X691Y1267D02*
Y1287D01*
X659Y1318*
X691Y1267D02*
Y1264D01*
X654Y1227*
Y1169*
X654Y1169*
Y1166*
X705D02*
X747D01*
Y1171*
X707Y1091D02*
Y1095D01*
X680Y1123*
Y1163*
X679Y1163*
Y1166*
X731Y731D02*
X746D01*
X776Y761*
Y825*
X759Y843*
X707*
X683Y867*
X739Y931D02*
X709D01*
X705Y935*
X743Y367D02*
X725Y349D01*
X743Y390D02*
X725Y408D01*
X743Y447D02*
X725Y429D01*
X743Y470D02*
X725Y488D01*
X765Y1555D02*
Y1489D01*
X874Y1381*
X766Y367D02*
X784Y349D01*
X766Y390D02*
X784Y408D01*
X766Y447D02*
X784Y429D01*
X766Y470D02*
X784Y488D01*
X823Y367D02*
X805Y349D01*
X823Y390D02*
X805Y408D01*
X823Y447D02*
X805Y429D01*
X823Y470D02*
X805Y488D01*
X828Y535D02*
X806Y513D01*
X828Y580D02*
X806Y603D01*
X846Y367D02*
X864Y349D01*
X846Y390D02*
X864Y408D01*
X846Y447D02*
X864Y429D01*
X846Y470D02*
X864Y488D01*
X848Y1555D02*
X823D01*
X851Y648D02*
X860D01*
Y746*
X904Y790*
Y972*
X880Y997*
Y1303*
X907Y1330*
Y1329*
X905Y1327*
X905Y1329*
X907Y1331*
X906*
X851Y648D02*
X1026Y649D01*
X1025Y649*
X1021*
X1022Y651*
X1024*
X1067Y608*
Y524*
X855Y833D02*
Y835D01*
X826*
X787Y875*
X782*
X782Y875*
X865Y1500D02*
Y1475D01*
Y1610D02*
Y1635D01*
X873Y535D02*
X896Y513D01*
X873Y580D02*
X896Y603D01*
X874Y1381D02*
Y1342D01*
X854Y1322*
Y951*
X855Y949*
Y923*
X883Y1555D02*
X908D01*
X937Y1402D02*
Y1427D01*
X947Y1381D02*
X972D01*
X965Y524D02*
X940D01*
X976Y500D02*
Y476D01*
Y549D02*
Y574D01*
X986Y524D02*
X1011D01*
X1005Y1363D02*
X980D01*
X1016Y1342D02*
Y1317D01*
Y1384D02*
Y1409D01*
X1028Y1555D02*
X1003D01*
X1031Y1130D02*
Y1091D01*
X1048Y1073*
Y961*
X1184Y826*
X1235*
X1280Y870*
Y919*
X1279Y919*
X1035Y323D02*
X1067Y291D01*
X1091*
X1045Y1500D02*
Y1475D01*
Y1610D02*
Y1635D01*
X1063Y1555D02*
X1088D01*
X1079Y1363D02*
Y1336D01*
X1048Y1305*
Y1244*
X1031Y1227*
Y1220*
X1091Y291D02*
X1115D01*
X1147Y323*
X1091Y131D02*
Y290D01*
X1091Y291*
X1145Y1555D02*
Y1429D01*
X1079Y1363*
X1155Y619D02*
Y527D01*
X1157Y524*
Y547*
X1228*
X1229Y547*
X1255*
X1202Y919D02*
Y923D01*
X1163*
X1202Y1150D02*
X1164D01*
X1228Y919D02*
X1227D01*
Y963*
X1170Y1019*
Y1075*
X1171*
X1228Y1132D02*
Y1107D01*
Y1150D02*
Y1107D01*
X1229*
X1345Y991*
X1369*
Y1035*
X1228Y1169D02*
Y1194D01*
X1234Y610D02*
X1209D01*
X1239Y375D02*
X1221Y357D01*
X1239Y398D02*
X1221Y416D01*
X1239Y455D02*
X1221Y437D01*
X1239Y478D02*
X1221Y496D01*
X1249Y131D02*
Y193D01*
X1267Y211*
X1315*
Y344*
X1301Y357*
X1331Y387*
X1249Y221D02*
Y246D01*
X1254Y1150D02*
Y1223D01*
X1250Y1227*
X1255Y621D02*
Y646D01*
X1258Y1035D02*
X1233D01*
X1262Y375D02*
X1280Y357D01*
X1262Y398D02*
X1280Y416D01*
X1262Y455D02*
X1280Y437D01*
X1262Y478D02*
X1280Y496D01*
X1276Y610D02*
X1300D01*
X1319Y375D02*
X1301Y357D01*
X1319Y398D02*
X1301Y416D01*
X1319Y455D02*
X1301Y437D01*
X1319Y478D02*
X1301Y496D01*
X1323Y1509D02*
Y1563D01*
X1325*
X1342Y375D02*
X1360Y357D01*
X1342Y398D02*
X1360Y416D01*
X1342Y455D02*
X1360Y437D01*
X1376Y523D02*
X1351D01*
X1382Y1150D02*
Y1047D01*
X1369Y1035*
X1382Y1169D02*
Y1194D01*
X1387Y1481D02*
X1427Y1521D01*
Y1555*
X1425*
X1407Y900D02*
Y875D01*
X1433Y919D02*
Y828D01*
X1459Y802*
X1443Y515D02*
Y489D01*
Y531D02*
Y556D01*
X1450Y1275D02*
X1499D01*
X1507Y1267*
X1459Y739D02*
X1492D01*
X1523Y771*
X1479Y1035D02*
X1504D01*
X1484Y919D02*
Y881D01*
X1499Y867*
X1713*
X1484Y1150D02*
X1483D01*
Y1154*
X1485Y1156*
Y1185*
X1507Y1207*
Y1267*
X1486Y1330D02*
X1460D01*
X1496Y1384D02*
X1478Y1366D01*
X1496Y1407D02*
X1478Y1425D01*
X1507Y1330D02*
Y1394D01*
X1507Y1395*
X1510Y919D02*
Y971D01*
X1515*
X1399Y1086*
X1369*
Y1035*
X1510Y937D02*
Y962D01*
Y1150D02*
Y1086D01*
X1513Y1083*
X1510Y523D02*
X1535D01*
X1525Y1555D02*
X1523D01*
Y1466*
X1571Y914D02*
X1539D01*
X1535Y919*
X1571Y1198D02*
X1561Y1188D01*
Y1177*
X1535Y1150*
X1590Y733D02*
X1653D01*
X1659Y739*
X1590Y808D02*
X1541D01*
X1507Y843*
X1483*
X1459Y867*
Y919*
X1458Y919*
X1590Y808D02*
X1653D01*
X1659Y802*
X1627Y1555D02*
Y1466D01*
X1659Y739D02*
X1677D01*
X1741Y675*
X1716Y1057D02*
X1694Y1035D01*
X1716Y1102D02*
X1694Y1125D01*
X1738Y989D02*
Y962D01*
X1710Y933*
Y870*
X1713Y867*
X1761Y1057D02*
X1784Y1035D01*
X1761Y1102D02*
X1784Y1125D01*
D02*
D78*
X1130Y808D02*
X1004D01*
Y745*
X1130*
Y808*
G36*
X1004*
Y745*
X1130*
Y808*
G37*
D02*
D87*
X262Y771D03*
X352D03*
D02*
D91*
X234Y635D02*
Y701D01*
Y635D02*
Y555D01*
X282Y1555D02*
Y1563D01*
X285*
Y1555*
X339Y939D02*
X267Y1011D01*
Y1450*
X282Y1466*
X385Y1555D02*
X387D01*
Y1459D02*
X334Y1406D01*
Y1184*
X585Y1555D02*
Y1531D01*
X643D02*
X811Y1363D01*
Y995*
X739Y931*
X747Y1171D02*
Y1331D01*
X619Y1459*
X483*
X1163Y923D02*
X1097Y989D01*
Y1283*
X1323Y1509*
X1164Y1150D02*
X1156Y1154D01*
Y1250*
X1387Y1481*
X1170Y131D02*
Y266D01*
X1171Y267*
X1325Y1563D02*
Y1555D01*
X1369Y1035D02*
X1425D01*
X1449Y1011*
Y995*
X1523Y1466D02*
X1571Y1419D01*
Y1198*
X1625Y1555D02*
X1627D01*
Y1466D02*
X1635Y1459D01*
Y979*
X1571Y914*
X1666Y523D02*
Y599D01*
X1741Y675*
D02*
D108*
X251Y539D03*
X474D03*
X1443Y523D03*
X1666D03*
D02*
D109*
X372Y935D03*
Y1166D03*
X398Y935D03*
Y1166D03*
X423Y935D03*
Y1166D03*
X449Y935D03*
Y1166D03*
X475Y935D03*
Y1166D03*
X500Y935D03*
Y1166D03*
X526Y935D03*
Y1166D03*
X551Y935D03*
Y1166D03*
X577Y935D03*
Y1166D03*
X602Y935D03*
Y1166D03*
X628Y935D03*
Y1166D03*
X654Y935D03*
Y1166D03*
X679Y935D03*
Y1166D03*
X705Y935D03*
Y1166D03*
X1202Y919D03*
Y1150D03*
X1228Y919D03*
Y1150D03*
X1254Y919D03*
Y1150D03*
X1279Y919D03*
Y1150D03*
X1305Y919D03*
Y1150D03*
X1330Y919D03*
Y1150D03*
X1356Y919D03*
Y1150D03*
X1382Y919D03*
Y1150D03*
X1407Y919D03*
Y1150D03*
X1433Y919D03*
Y1150D03*
X1458Y919D03*
Y1150D03*
X1484Y919D03*
Y1150D03*
X1510Y919D03*
Y1150D03*
X1535Y919D03*
Y1150D03*
D02*
D110*
X539Y1050D03*
X1369Y1035D03*
D02*
D111*
X285Y1555D03*
X385D03*
X485D03*
X585D03*
X765D03*
X865D03*
X1045D03*
X1145D03*
X1325D03*
X1425D03*
X1525D03*
X1625D03*
D02*
D112*
X651Y131D03*
X729D03*
X808D03*
X887D03*
X1013D03*
X1091D03*
X1170D03*
X1249D03*
D02*
D113*
X670Y725D03*
Y800D03*
X1590Y733D03*
Y808D03*
D02*
D114*
X603Y763D03*
X1523Y771D03*
D02*
D115*
X539Y739D03*
Y802D03*
X731Y731D03*
Y794D03*
X1255Y547D03*
Y610D03*
X1459Y739D03*
Y802D03*
X1507Y1267D03*
Y1330D03*
X1659Y739D03*
Y802D03*
D02*
D116*
X976Y524D03*
X1067D03*
X1157D03*
D02*
D117*
X596Y1318D03*
X659D03*
X874Y1381D03*
X937D03*
X1016Y1363D03*
X1079D03*
D02*
D118*
X339Y851D03*
X395Y1347D03*
X420Y806D03*
X434Y1355D03*
X443Y1011D03*
X459Y1412D03*
X483Y299D03*
X491Y234D03*
X506Y1011D03*
X517Y1381D03*
X531Y267D03*
X563Y315D03*
Y1011D03*
X571Y219D03*
X627Y1011D03*
X633Y1259D03*
X691Y1267D03*
X782Y875D03*
X906Y1331D03*
X1035Y323D03*
X1147D03*
X1171Y267D03*
X1219Y859D03*
X1281Y995D03*
X1299Y1323D03*
X1337Y995D03*
X1343Y1366D03*
X1379Y1342D03*
X1393Y995D03*
X1409Y1381D03*
X1449Y995D03*
X1450Y1275D03*
X1513Y1083D03*
D02*
D119*
X398Y1166D02*
X395D01*
Y1075*
X467Y1002*
X563*
Y1011*
X483Y299D02*
X539D01*
X555Y282*
X771*
X803Y250*
X883*
X899Y234*
Y211*
X883Y195*
X886Y203*
X891Y198*
Y131*
X887*
X531Y267D02*
X747D01*
X763Y250*
X771*
X835Y187*
Y131*
X808*
X563Y315D02*
X579Y299D01*
X787*
X819Y267*
X914*
X939Y243*
Y171*
X979Y131*
X1013*
X563Y1011D02*
Y1027D01*
X539*
Y1050*
X729Y131D02*
Y236D01*
X715Y250*
X563*
X539Y227*
X491*
Y234*
X1219Y859D02*
X1235D01*
X1250Y875*
Y916*
X1254Y919*
X1299Y1323D02*
Y1217D01*
X1330Y1185*
Y1150*
X1343Y1366D02*
Y1334D01*
X1360Y1318*
Y1269*
X1406Y1222*
Y1150*
X1407*
X1433D02*
X1435D01*
Y1219*
X1379Y1274*
Y1342*
X1458Y1150D02*
X1459D01*
Y1219*
X1397Y1281*
Y1320*
X1415Y1338*
X1415Y1381*
X1409*
D02*
D132*
X596Y1318D02*
X594D01*
Y1301*
X635Y1259*
X0Y0D02*
M02*
