  0
SECTION
  2
HEADER
  9
$ACADVER
  1
AC1014
  9
$HANDSEED
  5
FFFF
  9
$MEASUREMENT
 70
     1
  0
ENDSEC
  0
SECTION
  2
TABLES
  0
TABLE
  2
VPORT
  5
8
330
0
100
AcDbSymbolTable
 70
     4
  0
VPORT
  5
2E
330
8
100
AcDbSymbolTableRecord
100
AcDbViewportTableRecord
  2
*ACTIVE
 70
     0
 10
0.0
 20
0.0
 11
1.0
 21
1.0
 12
210.0
 22
148.5
 13
0.0
 23
0.0
 14
10.0
 24
10.0
 15
10.0
 25
10.0
 16
0.0
 26
0.0
 36
1.0
 17
0.0
 27
0.0
 37
0.0
 40
341.0
 41
1.24
 42
50.0
 43
0.0
 44
0.0
 50
0.0
 51
0.0
 71
     0
 72
   100
 73
     1
 74
     3
 75
     0
 76
     0
 77
     0
 78
     0
  0
ENDTAB
  0
TABLE
  2
LTYPE
  5
5
330
0
100
AcDbSymbolTable
 70
     1
  0
LTYPE
  5
14
330
5
100
AcDbSymbolTableRecord
100
AcDbLinetypeTableRecord
  2
BYBLOCK
 70
     0
  3

 72
    65
 73
     0
 40
0.0
  0
LTYPE
  5
15
330
5
100
AcDbSymbolTableRecord
100
AcDbLinetypeTableRecord
  2
BYLAYER
 70
     0
  3

 72
    65
 73
     0
 40
0.0
  0
LTYPE
  5
16
330
5
100
AcDbSymbolTableRecord
100
AcDbLinetypeTableRecord
  2
CONTINUOUS
 70
     0
  3
Solid line
 72
    65
 73
     0
 40
0.0
  0
ENDTAB
  0
TABLE
  2
LAYER
  5
2
100
AcDbSymbolTable
 70
2
  0
LAYER
  5
50
100
AcDbSymbolTableRecord
100
AcDbLayerTableRecord
  2
0
 70
0
  6
CONTINUOUS
  0
LAYER
  5
51
100
AcDbSymbolTableRecord
100
AcDbLayerTableRecord
  2
FORMAT
 70
0
  6
CONTINUOUS
  0
ENDTAB
  0
TABLE
  2
STYLE
  5
3
330
0
100
AcDbSymbolTable
 70
     1
  0
STYLE
  5
11
330
3
100
AcDbSymbolTableRecord
100
AcDbTextStyleTableRecord
  2
STANDARD
 70
     0
 40
0.0
 41
1.0
 50
0.0
 71
     0
 42
2.5
  3
txt
  4

  0
ENDTAB
  0
TABLE
  2
VIEW
  5
6
330
0
100
AcDbSymbolTable
 70
     0
  0
ENDTAB
  0
TABLE
  2
UCS
  5
7
330
0
100
AcDbSymbolTable
 70
     0
  0
ENDTAB
  0
TABLE
  2
APPID
  5
9
330
0
100
AcDbSymbolTable
 70
     2
  0
APPID
  5
12
330
9
100
AcDbSymbolTableRecord
100
AcDbRegAppTableRecord
  2
ACAD
 70
     0
  0
ENDTAB
  0
TABLE
  2
DIMSTYLE
  5
A
330
0
100
AcDbSymbolTable
 70
     1
  0
DIMSTYLE
105
27
330
A
100
AcDbSymbolTableRecord
100
AcDbDimStyleTableRecord
  2
ISO-25
 70
     0
  3

  4

  5

  6

  7

 40
1.0
 41
2.5
 42
0.625
 43
3.75
 44
1.25
 45
0.0
 46
0.0
 47
0.0
 48
0.0
140
2.5
141
2.5
142
0.0
143
0.03937007874016
144
1.0
145
0.0
146
1.0
147
0.625
 71
     0
 72
     0
 73
     0
 74
     0
 75
     0
 76
     0
 77
     1
 78
     8
170
     0
171
     3
172
     1
173
     0
174
     0
175
     0
176
     0
177
     0
178
     0
270
     2
271
     2
272
     2
273
     2
274
     3
340
11
275
     0
280
     0
281
     0
282
     0
283
     0
284
     8
285
     0
286
     0
287
     3
288
     0
  0
ENDTAB
  0
TABLE
  2
BLOCK_RECORD
  5
1
330
0
100
AcDbSymbolTable
 70
     1
  0
BLOCK_RECORD
  5
1F
330
1
100
AcDbSymbolTableRecord
100
AcDbBlockTableRecord
  2
*MODEL_SPACE
  0
BLOCK_RECORD
  5
1B
330
1
100
AcDbSymbolTableRecord
100
AcDbBlockTableRecord
  2
*PAPER_SPACE
  0
ENDTAB
  0
ENDSEC
  0
SECTION
  2
BLOCKS
  0
BLOCK
  5
20
330
1F
100
AcDbEntity
  8
0
100
AcDbBlockBegin
  2
*MODEL_SPACE
 70
     0
 10
0.0
 20
0.0
 30
0.0
  3
*MODEL_SPACE
  1

  0
ENDBLK
  5
21
330
1F
100
AcDbEntity
  8
0
100
AcDbBlockEnd
  0
BLOCK
  5
1C
330
1B
100
AcDbEntity
 67
     1
  8
0
100
AcDbBlockBegin
  2
*PAPER_SPACE
  1

  0
ENDBLK
  5
1D
330
1B
100
AcDbEntity
 67
     1
  8
0
100
AcDbBlockEnd
  0
ENDSEC
  0
SECTION
  2
ENTITIES
  0
LWPOLYLINE
  5
100
100
AcDbEntity
  8
0
 62
7
100
AcDbPolyline
 90
7
 70
0
 10
164.007264
 20
792.454201
 30
0.0
 10
135.660800
 20
764.107745
 30
0.0
 10
143.678392
 20
764.107745
 30
0.0
 10
164.007264
 20
784.436613
 30
0.0
 10
184.336128
 20
764.107745
 30
0.0
 10
192.353720
 20
764.107745
 30
0.0
 10
164.007264
 20
792.454201
 30
0.0
  0
LWPOLYLINE
  5
101
100
AcDbEntity
  8
0
 62
7
100
AcDbPolyline
 90
7
 70
0
 10
200.857656
 20
749.934516
 30
0.0
 10
172.511200
 20
721.588060
 30
0.0
 10
180.528784
 20
721.588060
 30
0.0
 10
200.857656
 20
741.916932
 30
0.0
 10
221.186520
 20
721.588060
 30
0.0
 10
229.204112
 20
721.588060
 30
0.0
 10
200.857656
 20
749.934516
 30
0.0
  0
LWPOLYLINE
  5
102
100
AcDbEntity
  8
0
 62
7
100
AcDbPolyline
 90
7
 70
0
 10
127.156864
 20
749.934516
 30
0.0
 10
98.810408
 20
721.588060
 30
0.0
 10
106.828000
 20
721.588060
 30
0.0
 10
127.156864
 20
741.916932
 30
0.0
 10
147.485736
 20
721.588060
 30
0.0
 10
155.503320
 20
721.588060
 30
0.0
 10
127.156864
 20
749.934516
 30
0.0
  0
LWPOLYLINE
  5
103
100
AcDbEntity
  8
0
 62
7
100
AcDbPolyline
 90
7
 70
0
 10
164.007264
 20
707.414828
 30
0.0
 10
135.660800
 20
679.068372
 30
0.0
 10
143.678392
 20
679.068372
 30
0.0
 10
164.007264
 20
699.397244
 30
0.0
 10
184.336128
 20
679.068372
 30
0.0
 10
192.353720
 20
679.068372
 30
0.0
 10
164.007264
 20
707.414828
 30
0.0
  0
LWPOLYLINE
  5
104
100
AcDbEntity
  8
0
 62
7
100
AcDbPolyline
 90
7
 70
0
 10
237.708048
 20
707.414828
 30
0.0
 10
209.361592
 20
679.068372
 30
0.0
 10
217.379176
 20
679.068372
 30
0.0
 10
237.708048
 20
699.397244
 30
0.0
 10
258.036912
 20
679.068372
 30
0.0
 10
266.054504
 20
679.068372
 30
0.0
 10
237.708048
 20
707.414828
 30
0.0
  0
LWPOLYLINE
  5
105
100
AcDbEntity
  8
0
 62
7
100
AcDbPolyline
 90
7
 70
0
 10
90.306472
 20
707.414828
 30
0.0
 10
61.960016
 20
679.068372
 30
0.0
 10
69.977605
 20
679.068372
 30
0.0
 10
90.306472
 20
699.397244
 30
0.0
 10
110.635344
 20
679.068372
 30
0.0
 10
118.652928
 20
679.068372
 30
0.0
 10
90.306472
 20
707.414828
 30
0.0
  0
LWPOLYLINE
  5
106
100
AcDbEntity
  8
0
 62
7
100
AcDbPolyline
 90
7
 70
0
 10
274.558440
 20
664.895148
 30
0.0
 10
246.211984
 20
636.548692
 30
0.0
 10
254.229576
 20
636.548692
 30
0.0
 10
274.558440
 20
656.877556
 30
0.0
 10
294.887312
 20
636.548692
 30
0.0
 10
302.904896
 20
636.548692
 30
0.0
 10
274.558440
 20
664.895148
 30
0.0
  0
LWPOLYLINE
  5
107
100
AcDbEntity
  8
0
 62
7
100
AcDbPolyline
 90
7
 70
0
 10
200.857656
 20
664.895148
 30
0.0
 10
172.511200
 20
636.548692
 30
0.0
 10
180.528784
 20
636.548692
 30
0.0
 10
200.857656
 20
656.877556
 30
0.0
 10
221.186520
 20
636.548692
 30
0.0
 10
229.204112
 20
636.548692
 30
0.0
 10
200.857656
 20
664.895148
 30
0.0
  0
LWPOLYLINE
  5
108
100
AcDbEntity
  8
0
 62
7
100
AcDbPolyline
 90
7
 70
0
 10
127.156864
 20
664.895148
 30
0.0
 10
98.810408
 20
636.548692
 30
0.0
 10
106.828000
 20
636.548692
 30
0.0
 10
127.156864
 20
656.877556
 30
0.0
 10
147.485736
 20
636.548692
 30
0.0
 10
155.503320
 20
636.548692
 30
0.0
 10
127.156864
 20
664.895148
 30
0.0
  0
LWPOLYLINE
  5
109
100
AcDbEntity
  8
0
 62
7
100
AcDbPolyline
 90
7
 70
0
 10
53.456078
 20
664.895148
 30
0.0
 10
25.109622
 20
636.548692
 30
0.0
 10
33.127210
 20
636.548692
 30
0.0
 10
53.456078
 20
656.877556
 30
0.0
 10
73.784946
 20
636.548692
 30
0.0
 10
81.802536
 20
636.548692
 30
0.0
 10
53.456078
 20
664.895148
 30
0.0
  0
LWPOLYLINE
  5
10a
100
AcDbEntity
  8
0
 62
7
100
AcDbPolyline
 90
2
 70
0
 10
319.912776
 20
834.973886
 30
0.0
 10
8.101748
 20
834.973886
 30
0.0
  0
LWPOLYLINE
  5
10b
100
AcDbEntity
  8
0
 62
7
100
AcDbPolyline
 90
2
 70
0
 10
319.912776
 20
608.202236
 30
0.0
 10
319.912776
 20
834.973886
 30
0.0
  0
LWPOLYLINE
  5
10c
100
AcDbEntity
  8
0
 62
7
100
AcDbPolyline
 90
2
 70
0
 10
8.101748
 20
608.202236
 30
0.0
 10
319.912776
 20
608.202236
 30
0.0
  0
LWPOLYLINE
  5
10d
100
AcDbEntity
  8
0
 62
7
100
AcDbPolyline
 90
2
 70
0
 10
8.101748
 20
834.973886
 30
0.0
 10
8.101748
 20
608.202236
 30
0.0
  0
ENDSEC
  0
SECTION
  2
OBJECTS
  0
DICTIONARY
  5
C
330
0
100
AcDbDictionary
  3
ACAD_GROUP
350
D
  3
ACAD_MLINESTYLE
350
17
  0
DICTIONARY
  5
D
330
C
100
AcDbDictionary
  0
DICTIONARY
  5
1A
330
C
100
AcDbDictionary
  0
DICTIONARY
  5
17
330
C
100
AcDbDictionary
  3
STANDARD
350
18
  0
DICTIONARY
  5
19
330
C
100
AcDbDictionary
  0
ENDSEC
  0
EOF
